{"name":"getUsers","id":"SerenityTests:getUsers","testCaseName":"SerenityTests","testSteps":[{"number":1,"description":"Julian el trainer get users","duration":2431,"startTime":"2020-10-22T12:15:39.881+02:00[Europe/Paris]","result":"SUCCESS","precondition":false,"level":0,"children":[{"number":2,"description":"Julian el trainer executes a GET on the resource /users?page\u003d1","duration":2406,"startTime":"2020-10-22T12:15:39.902+02:00[Europe/Paris]","result":"SUCCESS","precondition":false,"level":1,"children":[{"number":3,"description":"GET http://localhost:5000/api/users?page\u003d1\r","duration":1,"startTime":"2020-10-22T12:15:42.294+02:00[Europe/Paris]","result":"SUCCESS","restQuery":{"method":"GET","path":"http://localhost:5000/api/users?page\u003d1\r","content":"\r","contentType":"application/json","requestHeaders":"header1\u003dvalue1\r\n\t\t\t\tAccept\u003d*/*\r\n\t\t\t\tContent-Type\u003dapplication/json; charset\u003dUTF-8\r","requestCookies":"\r","responseHeaders":"X-Powered-By: Express\r\nAccess-Control-Allow-Origin: *\r\nContent-Type: application/json; charset\u003dutf-8\r\nContent-Length: 539\r\nETag: W/\"21b-fFOA+z2p0qqZtiTcYG5d6jtK5Cs\"\r\nDate: Thu, 22 Oct 2020 10:15:42 GMT\r\nConnection: keep-alive\r","responseCookies":"\r","responseBody":"{\n    \"page\": 1,\n    \"per_page\": 3,\n    \"total\": 12,\n    \"total_pages\": 4,\n    \"data\": [\n        {\n            \"id\": 1,\n            \"email\": \"george.bluth@reqres.in\",\n            \"first_name\": \"George\",\n            \"last_name\": \"Bluth\",\n            \"avatar\": \"https://s3.amazonaws.com/uifaces/faces/twitter/calebogden/128.jpg\"\n        },\n        {\n            \"id\": 2,\n            \"email\": \"janet.weaver@reqres.in\",\n            \"first_name\": \"Janet\",\n            \"last_name\": \"Weaver\",\n            \"avatar\": \"https://s3.amazonaws.com/uifaces/faces/twitter/josephstein/128.jpg\"\n        },\n        {\n            \"id\": 3,\n            \"email\": \"emma.wong@reqres.in\",\n            \"first_name\": \"Emma\",\n            \"last_name\": \"Wong\",\n            \"avatar\": \"https://s3.amazonaws.com/uifaces/faces/twitter/olegpogodaev/128.jpg\"\n        }\n    ]\n}","statusCode":200},"precondition":false,"level":2}]}]},{"number":4,"description":"Then El codigo de respuesta should be (200)","duration":20,"startTime":"2020-10-22T12:15:42.403+02:00[Europe/Paris]","result":"SUCCESS","precondition":false,"level":0},{"number":5,"description":"Then Usuario no es nulo should be not null","duration":1,"startTime":"2020-10-22T12:15:42.460+02:00[Europe/Paris]","result":"SUCCESS","precondition":false,"level":0},{"number":6,"description":"Then El email del usuario should be \u0027george.bluth@reqres.in\u0027","duration":0,"startTime":"2020-10-22T12:15:42.463+02:00[Europe/Paris]","result":"SUCCESS","precondition":false,"level":0},{"number":7,"description":"Then El email del usuario should be \u0027https://s3.amazonaws.com/uifaces/faces/twitter/calebogden/128.jpg\u0027","duration":0,"startTime":"2020-10-22T12:15:42.464+02:00[Europe/Paris]","result":"SUCCESS","precondition":false,"level":0}],"userStory":{"id":"SerenityTests","storyName":"Serenity tests","storyClassName":"SerenityTests","path":"","type":"story"},"featureTag":{"name":"Serenity tests","type":"story","displayName":"Serenity tests"},"title":"Get users","tags":[{"name":"Serenity tests","type":"story","displayName":"Serenity tests"}],"startTime":"2020-10-22T12:15:39.757+02:00[Europe/Paris]","duration":2711,"projectKey":"","manual":false,"testSource":"JUnit","actors":[{"name":"Julian el trainer","can":["call an API at http://localhost:5000/api"]}],"result":"SUCCESS"}