{"name":"getUsersFail","id":"SerenityTests:getUsersFail","testCaseName":"SerenityTests","testSteps":[{"number":1,"description":"Julian el trainer get users","duration":3105,"startTime":"2020-10-16T12:10:53.105+02:00[Europe/Paris]","result":"SUCCESS","precondition":false,"level":0,"children":[{"number":2,"description":"Julian el trainer executes a GET on the resource /users?page\u003d2","duration":3027,"startTime":"2020-10-16T12:10:53.180+02:00[Europe/Paris]","result":"SUCCESS","precondition":false,"level":1,"children":[{"number":3,"description":"GET http://localhost:5000/api/users?page\u003d2\r","duration":1,"startTime":"2020-10-16T12:10:56.204+02:00[Europe/Paris]","result":"SUCCESS","restQuery":{"method":"GET","path":"http://localhost:5000/api/users?page\u003d2\r","content":"\r","contentType":"application/json","requestHeaders":"header1\u003dvalue1\r\n\t\t\t\tAccept\u003d*/*\r\n\t\t\t\tContent-Type\u003dapplication/json; charset\u003dUTF-8\r","requestCookies":"\r","responseHeaders":"X-Powered-By: Express\r\nAccess-Control-Allow-Origin: *\r\nContent-Type: application/json; charset\u003dutf-8\r\nContent-Length: 540\r\nETag: W/\"21c-V3l8h04l5/8zLV+i3u8GJo8G3Y8\"\r\nDate: Fri, 16 Oct 2020 10:10:56 GMT\r\nConnection: keep-alive\r","responseCookies":"\r","responseBody":"{\n    \"page\": 2,\n    \"per_page\": 3,\n    \"total\": 12,\n    \"total_pages\": 4,\n    \"data\": [\n        {\n            \"id\": 4,\n            \"email\": \"eve.holt@reqres.in\",\n            \"first_name\": \"Eve\",\n            \"last_name\": \"Holt\",\n            \"avatar\": \"https://s3.amazonaws.com/uifaces/faces/twitter/marcoramires/128.jpg\"\n        },\n        {\n            \"id\": 5,\n            \"email\": \"charles.morris@reqres.in\",\n            \"first_name\": \"Charles\",\n            \"last_name\": \"Morris\",\n            \"avatar\": \"https://s3.amazonaws.com/uifaces/faces/twitter/stephenmoon/128.jpg\"\n        },\n        {\n            \"id\": 6,\n            \"email\": \"tracey.ramos@reqres.in\",\n            \"first_name\": \"Tracey\",\n            \"last_name\": \"Ramos\",\n            \"avatar\": \"https://s3.amazonaws.com/uifaces/faces/twitter/bigmancho/128.jpg\"\n        }\n    ]\n}","statusCode":200},"precondition":false,"level":2}]}]},{"number":4,"description":"Then El codigo de respuesta should be (400)","duration":38,"startTime":"2020-10-16T12:10:56.335+02:00[Europe/Paris]","exception":{"errorType":"java.lang.AssertionError","message":"\nExpected: \u003c400\u003e\n     but: was \u003c200\u003e","stackTrace":[{"declaringClass":"SerenityTests","methodName":"getUsersFail","fileName":"SerenityTests.java","lineNumber":49}]},"result":"FAILURE","precondition":false,"level":0}],"userStory":{"id":"SerenityTests","storyName":"Serenity tests","storyClassName":"SerenityTests","path":"","type":"story"},"featureTag":{"name":"Serenity tests","type":"story","displayName":"Serenity tests"},"title":"Get users fail","tags":[{"name":"Serenity tests","type":"story","displayName":"Serenity tests"}],"startTime":"2020-10-16T12:10:52.937+02:00[Europe/Paris]","duration":3497,"testFailureCause":{"errorType":"java.lang.AssertionError","message":"\nExpected: \u003c400\u003e\n     but: was \u003c200\u003e","stackTrace":[{"declaringClass":"SerenityTests","methodName":"getUsersFail","fileName":"SerenityTests.java","lineNumber":49}]},"testFailureClassname":"java.lang.AssertionError","testFailureMessage":"\nExpected: \u003c400\u003e\n     but: was \u003c200\u003e","testFailureSummary":"FAILURE;java.lang.AssertionError;\nExpected: \u003c400\u003e\n     but: was \u003c200\u003e;SerenityTests.java","projectKey":"","annotatedResult":"FAILURE","manual":false,"testSource":"JUnit","actors":[{"name":"Julian el trainer","can":["call an API at http://localhost:5000/api"]}],"result":"FAILURE"}